lab2/simulation/qsim/lab2.msim.vcd
$comment
	File created using the following command:
		vcd file lab2.msim.vcd -direction
$end
$date
	Tue Mar 17 09:49:43 2026
$end
$version
	ModelSim Version 10.1d
$end
$timescale
	1ps
$end
$scope module lab2_2_vlg_vec_tst $end
$var reg 1 ! CLK $end
$var reg 1 " ENA $end
$var reg 1 # Reset $end
$var wire 1 $ out [6] $end
$var wire 1 % out [5] $end
$var wire 1 & out [4] $end
$var wire 1 ' out [3] $end
$var wire 1 ( out [2] $end
$var wire 1 ) out [1] $end
$var wire 1 * out [0] $end
$var wire 1 + sampler $end
$scope module i1 $end
$var wire 1 , gnd $end
$var wire 1 - vcc $end
$var wire 1 . unknown $end
$var tri1 1 / devclrn $end
$var tri1 1 0 devpor $end
$var tri1 1 1 devoe $end
$var wire 1 2 CLK~combout $end
$var wire 1 3 CLK~clkctrl_outclk $end
$var wire 1 4 comb_3|Q[0]~3_combout $end
$var wire 1 5 Reset~combout $end
$var wire 1 6 Reset~clkctrl_outclk $end
$var wire 1 7 ENA~combout $end
$var wire 1 8 comb_3|Q~1_combout $end
$var wire 1 9 comb_3|Q~2_combout $end
$var wire 1 : comb_3|Q[2]~0_combout $end
$var wire 1 ; comb_4|out[0]~0_combout $end
$var wire 1 < comb_4|out[1]~1_combout $end
$var wire 1 = comb_4|out[2]~2_combout $end
$var wire 1 > comb_4|out[3]~3_combout $end
$var wire 1 ? comb_4|out[4]~4_combout $end
$var wire 1 @ comb_4|out[5]~5_combout $end
$var wire 1 A comb_4|out[6]~6_combout $end
$var wire 1 B comb_3|Q [3] $end
$var wire 1 C comb_3|Q [2] $end
$var wire 1 D comb_3|Q [1] $end
$var wire 1 E comb_3|Q [0] $end
$upscope $end
$upscope $end
$enddefinitions $end
#0
$dumpvars
0!
1"
1#
0*
0)
0(
0'
0&
0%
1$
x+
0,
1-
x.
1/
10
11
02
03
14
15
16
17
08
09
0:
0;
0<
0=
0>
0?
0@
1A
0E
0D
0C
0B
$end
#25000
1!
12
13
0+
1E
1@
1?
1>
1;
19
04
1%
1&
1'
1*
#50000
0!
02
03
1+
#75000
1!
12
13
0+
1D
0E
0A
0?
0>
1=
0;
14
0$
0&
0'
1(
0*
#100000
0!
02
03
1+
#125000
1!
12
13
0+
1E
1?
0=
1:
09
04
1&
0(
#150000
0!
02
03
1+
#175000
1!
12
13
0+
1C
0D
0E
0@
1>
1;
14
0%
1'
1*
#200000
0!
02
03
1+
#225000
1!
12
13
0+
1E
0>
1<
0;
19
04
0'
1)
0*
#250000
0!
02
03
1+
#275000
1!
12
13
0+
1D
0E
0?
14
0&
#300000
0!
02
03
1+
#325000
1!
12
13
0+
1E
1A
1@
1?
1>
0<
0:
09
18
04
1$
1%
1&
1'
0)
#350000
0!
02
03
1+
#375000
1!
12
13
0+
0C
0D
1B
0E
0A
0@
0>
14
0$
0%
0'
#400000
0!
02
03
1+
#425000
1!
12
13
0+
1E
08
04
#450000
0!
02
03
1+
#475000
1!
12
13
0+
0B
0E
1A
0?
14
1$
0&
#500000
0!
02
03
1+
#525000
1!
12
13
0+
1E
1@
1?
1>
1;
19
04
1%
1&
1'
1*
#550000
0!
02
03
1+
#575000
1!
12
13
0+
1D
0E
0A
0?
0>
1=
0;
14
0$
0&
0'
1(
0*
#600000
0!
02
03
1+
#625000
1!
12
13
0+
1E
1?
0=
1:
09
04
1&
0(
#650000
0!
02
03
1+
#675000
1!
12
13
0+
1C
0D
0E
0@
1>
1;
14
0%
1'
1*
#700000
0!
02
03
1+
#725000
1!
12
13
0+
1E
0>
1<
0;
19
04
0'
1)
0*
#750000
0!
02
03
1+
#775000
1!
12
13
0+
1D
0E
0?
14
0&
#800000
0!
02
03
1+
#825000
1!
12
13
0+
1E
1A
1@
1?
1>
0<
0:
09
18
04
1$
1%
1&
1'
0)
#850000
0!
02
03
1+
#875000
1!
12
13
0+
0C
0D
1B
0E
0A
0@
0>
14
0$
0%
0'
#900000
0!
02
03
1+
#925000
1!
12
13
0+
1E
08
04
#950000
0!
02
03
1+
#975000
1!
12
13
0+
0B
0E
1A
0?
14
1$
0&
