lab2/simulation/qsim/lab2.msim.vcd
$comment
	File created using the following command:
		vcd file lab2.msim.vcd -direction
$end
$date
	Mon Mar 16 20:34:46 2026
$end
$version
	ModelSim Version 10.1d
$end
$timescale
	1ps
$end
$scope module count_4bit_vlg_vec_tst $end
$var reg 1 ! CLK $end
$var reg 1 " Clear $end
$var reg 1 # ENA $end
$var wire 1 $ Q [3] $end
$var wire 1 % Q [2] $end
$var wire 1 & Q [1] $end
$var wire 1 ' Q [0] $end
$var wire 1 ( sampler $end
$scope module i1 $end
$var wire 1 ) gnd $end
$var wire 1 * vcc $end
$var wire 1 + unknown $end
$var tri1 1 , devclrn $end
$var tri1 1 - devpor $end
$var tri1 1 . devoe $end
$var wire 1 / ENA~combout $end
$var wire 1 0 CLK~combout $end
$var wire 1 1 CLK~clkctrl_outclk $end
$var wire 1 2 FF0|Q~0_combout $end
$var wire 1 3 Clear~combout $end
$var wire 1 4 Clear~clkctrl_outclk $end
$var wire 1 5 FF0|Q~regout $end
$var wire 1 6 FF1|Q~0_combout $end
$var wire 1 7 FF1|Q~regout $end
$var wire 1 8 FF2|Q~0_combout $end
$var wire 1 9 FF2|Q~regout $end
$var wire 1 : g3~combout $end
$var wire 1 ; FF3|Q~0_combout $end
$var wire 1 < FF3|Q~regout $end
$upscope $end
$upscope $end
$enddefinitions $end
#0
$dumpvars
0!
1"
1#
0'
0&
0%
0$
x(
0)
1*
x+
1,
1-
1.
1/
00
01
12
13
14
05
06
07
08
09
0:
0;
0<
$end
#25000
1!
10
11
0(
15
16
02
1'
#50000
0!
00
01
1(
#75000
1!
10
11
0(
17
05
12
1&
0'
#100000
0!
00
01
1(
#125000
1!
10
11
0(
15
18
06
02
1'
#150000
0!
00
01
1(
#175000
1!
10
11
0(
19
07
05
12
1%
0&
0'
#200000
0!
00
01
1(
#225000
1!
10
11
0(
15
16
02
1'
#250000
0!
00
01
1(
#275000
1!
10
11
0(
17
05
12
1&
0'
#300000
0!
00
01
1(
#325000
1!
10
11
0(
15
1:
08
06
02
1'
1;
#350000
0!
00
01
1(
#375000
1!
10
11
0(
1<
09
07
05
0;
0:
12
1$
0%
0&
0'
1;
#400000
0!
00
01
1(
#425000
1!
10
11
0(
15
16
02
1'
#450000
0!
00
01
1(
#475000
1!
10
11
0(
17
05
12
1&
0'
#500000
0!
00
01
1(
#525000
1!
10
11
0(
15
18
06
02
1'
#550000
0!
00
01
1(
#575000
1!
10
11
0(
19
07
05
12
1%
0&
0'
#600000
0!
00
01
1(
#625000
1!
10
11
0(
15
16
02
1'
#650000
0!
00
01
1(
#675000
1!
10
11
0(
17
05
12
1&
0'
#700000
0!
00
01
1(
#725000
1!
10
11
0(
15
1:
08
06
02
1'
0;
#750000
0!
00
01
1(
#775000
1!
10
11
0(
0<
09
07
05
1;
0:
12
0$
0%
0&
0'
0;
#800000
0!
00
01
1(
#825000
1!
10
11
0(
15
16
02
1'
#850000
0!
00
01
1(
#875000
1!
10
11
0(
17
05
12
1&
0'
#900000
0!
00
01
1(
#925000
1!
10
11
0(
15
18
06
02
1'
#950000
0!
00
01
1(
#975000
1!
10
11
0(
19
07
05
12
1%
0&
0'
