lab1/simulation/qsim/lab1.msim.vcd
$comment
	File created using the following command:
		vcd file lab1.msim.vcd -direction
$end
$date
	Fri Mar 13 08:27:00 2026
$end
$version
	ModelSim Version 10.1d
$end
$timescale
	1ps
$end
$scope module lab1_3_vlg_vec_tst $end
$var reg 1 ! CLK $end
$var reg 1 " D $end
$var wire 1 # Qa $end
$var wire 1 $ Qan $end
$var wire 1 % Qb $end
$var wire 1 & Qbn $end
$var wire 1 ' Qc $end
$var wire 1 ( Qcn $end
$var wire 1 ) sampler $end
$scope module i1 $end
$var wire 1 * gnd $end
$var wire 1 + vcc $end
$var wire 1 , unknown $end
$var tri1 1 - devclrn $end
$var tri1 1 . devpor $end
$var tri1 1 / devoe $end
$var wire 1 0 D~combout $end
$var wire 1 1 CLK~combout $end
$var wire 1 2 CLK~clkctrl_outclk $end
$var wire 1 3 comb_3|n3~combout $end
$var wire 1 4 comb_4|comb_3|n3~combout $end
$var wire 1 5 comb_4|comb_5|n3~0_combout $end
$var wire 1 6 comb_5|comb_3|n3~combout $end
$var wire 1 7 comb_5|comb_5|n3~0_combout $end
$upscope $end
$upscope $end
$enddefinitions $end
#0
$dumpvars
0!
1"
x#
x$
x%
x&
x'
x(
x)
0*
1+
x,
1-
1.
1/
10
01
02
x3
04
x5
x6
x7
$end
#25000
1!
11
12
0)
06
05
03
0&
0$
1%
1#
#50000
0"
0!
00
01
02
1)
14
07
0(
1'
#75000
1!
11
12
0)
16
15
13
1&
1$
0%
0#
#100000
0!
01
02
1)
17
1(
0'
#125000
1!
11
12
0)
#150000
0!
01
02
1)
#175000
1!
11
12
0)
#200000
1"
0!
10
01
02
1)
04
#225000
1!
11
12
0)
06
05
03
0&
0$
1%
1#
#250000
0!
01
02
1)
07
0(
1'
#275000
1!
11
12
0)
#300000
0!
01
02
1)
#325000
1!
11
12
0)
#350000
0"
0!
00
01
02
1)
14
#375000
1!
11
12
0)
16
15
13
1&
1$
0%
0#
#400000
0!
01
02
1)
17
1(
0'
#425000
1!
11
12
0)
#450000
1"
0!
10
01
02
1)
04
#475000
1!
11
12
0)
06
05
03
0&
0$
1%
1#
#500000
0"
0!
00
01
02
1)
14
07
0(
1'
#525000
1!
11
12
0)
16
15
13
1&
1$
0%
0#
#550000
1"
0!
10
01
02
1)
04
17
1(
0'
#575000
1!
11
12
0)
06
05
03
0&
0$
1%
1#
#600000
0"
0!
00
01
02
1)
14
07
0(
1'
#625000
1!
11
12
0)
16
15
13
1&
1$
0%
0#
#650000
0!
01
02
1)
17
1(
0'
#675000
1!
11
12
0)
#700000
1"
0!
10
01
02
1)
04
#725000
1!
11
12
0)
06
05
03
0&
0$
1%
1#
#750000
0!
01
02
1)
07
0(
1'
#775000
1!
11
12
0)
#800000
0!
01
02
1)
#825000
1!
11
12
0)
#850000
0"
0!
00
01
02
1)
14
#875000
1!
11
12
0)
16
15
13
1&
1$
0%
0#
#900000
1"
0!
10
01
02
1)
04
17
1(
0'
#925000
1!
11
12
0)
06
05
03
0&
0$
1%
1#
#950000
0!
01
02
1)
07
0(
1'
#975000
1!
11
12
0)
